Loading Plugins:
Total 241 filtering actions
Total 12 io plugins
Log is saved in c:\users\mathur\appdata\local\temp\tmpssstpd.txt
no additional memory available!!! memory required: 10204656
no additional memory available!!! memory required: 2915664
no additional memory available!!! memory required: 2915664

no additional memory available!!! memory required: 10204656
no additional memory available!!! memory required: 2915664
no additional memory available!!! memory required: 5288592
no additional memory available!!! memory required: 2915664
*END OF MESHLAB STDOUT & STDERR***
meshlabserver return code = 0

max_distance     = 2.191013
rms_distance     = 0.174143
number_points    = 3000
mean_distance    = 0.026929
min_distance     = 0.0
meshlabserver cmd = meshlabserver -l c:\users\mathur\appdata\local\temp\tmpgvluqb.txt -i "openscad_0.stl" -s "c:\users\mathur\appdata\local\temp\tmpvszmfk.mlx"
***START OF MESHLAB STDOUT & STDERR***
***END OF MESHLAB STDOUT & STDERR***
meshlabserver return code = 0

inertia_tensor              = [[657813504.0, -0.115844, -0.101276], [-0.115844, 657813504.0, -0.608007], [-0.101276, -0.608007, 711684672.0]]
volume_mm3                  = 557193.0625
aabb_min                    = [-53.219398, -53.219398, -37.6409]
total_edge_length           = 204356.25
volume_cm3                  = 557.1930625
area_cm2                    = nan
axis_momenta                = [657813504.0, 657813504.0, 711684672.0]
vert_barycenter             = [0.0, 0.0, 9.764663]
aabb_diag                   = 182.595352
total_edge_length_incl_faux = 204356.25
area_mm2                    = nan
aabb_size                   = [106.438797, 106.438797, 103.356796]
principal_axes              = [[0.999813, 0.019321, 0.0], [0.019321, -0.999813, -0.0], [-0.0, -0.0, 1.0]]
center_of_mass              = [-0.0, 0.0, 13.051941]
barycenter                  = [1e-06, -2e-06, 16.753405]
aabb_max                    = [53.219398, 53.219398, 65.715897]
meshlabserver cmd = meshlabserver -l c:\users\mathur\appdata\local\temp\tmp_kerci.txt -i "cq_1.stl" -i "openscad_1.stl" -s "c:\users\mathur\appdata\local\temp\tmptp9rja.mlx"
***START OF MESHLAB STDOUT & STDERR***
***END OF MESHLAB STDOUT & STDERR***
meshlabserver return code = 0

max_distance     = 4.090755
rms_distance     = 2.446101
number_points    = 3000
mean_distance    = 2.027211
min_distance     = 0.0
meshlabserver cmd = meshlabserver -l c:\users\mathur\appdata\local\temp\tmp7lllip.txt -i "openscad_1.stl" -s "c:\users\mathur\appdata\local\temp\tmpunqncc.mlx"
***START OF MESHLAB STDOUT & STDERR***
***END OF MESHLAB STDOUT & STDERR***
meshlabserver return code = 0

inertia_tensor              = [[1504247040.0, 0.40359, -0.168927], [0.40359, 1504247040.0, 0.367145], [-0.168927, 0.367145, 1542984320.0]]
volume_mm3                  = 963488.0625
aabb_min                    = [-62.1045, -62.1045, -66.195198]
total_edge_length           = 238156.296875
volume_cm3                  = 963.4880625
area_cm2                    = nan
axis_momenta                = [1504247168.0, 1504247168.0, 1542984320.0]
vert_barycenter             = [0.0, 0.0, -6.345005]
aabb_diag                   = 214.73912
total_edge_length_incl_faux = 238156.296875
area_mm2                    = nan
aabb_size                   = [124.209, 124.209, 123.519798]
principal_axes              = [[0.296761, -0.954952, 0.0], [-0.954952, -0.296761, -0.0], [0.0, -0.0, -1.0]]
center_of_mass              = [-0.0, 0.0, -5.24573]
barycenter                  = [-1e-06, 1e-06, -1.062671]
aabb_max                    = [62.1045, 62.1045, 57.3246]
meshlabserver cmd = meshlabserver -l c:\users\mathur\appdata\local\temp\tmpkwhh5v.txt -i "cq_2.stl" -i "openscad_2.stl" -s "c:\users\mathur\appdata\local\temp\tmpjmdn6z.mlx"
***START OF MESHLAB STDOUT & STDERR***
***END OF MESHLAB STDOUT & STDERR***
meshlabserver return code = 0

max_distance     = 8.042223
rms_distance     = 0.709658
number_points    = 2999
mean_distance    = 0.093125
min_distance     = 0.0
meshlabserver cmd = meshlabserver -l c:\users\mathur\appdata\local\temp\tmpvp0xqp.txt -i "openscad_2.stl" -s "c:\users\mathur\appdata\local\temp\tmpf3e7pb.mlx"
***START OF MESHLAB STDOUT & STDERR***
***END OF MESHLAB STDOUT & STDERR***
meshlabserver return code = 0

inertia_tensor              = [[3974348032.0, 1.405767, 1.602879], [1.405767, 3974348032.0, -19.261353], [1.602879, -19.261353, 4332391424.0]]
volume_mm3                  = 1503570.875
aabb_min                    = [-73.0896, -73.0896, -11.0474]
total_edge_length           = 327681.21875
volume_cm3                  = 1503.570875
area_cm2                    = nan
axis_momenta                = [3974348288.0, 3974348288.0, 4332391424.0]
vert_barycenter             = [0.0, 0.0, 74.312325]
aabb_diag                   = 252.91597
total_edge_length_incl_faux = 327681.21875
area_mm2                    = nan
aabb_size                   = [146.179199, 146.179199, 145.704391]
principal_axes              = [[-0.033309, 0.999445, 0.0], [-0.999445, -0.033309, 0.0], [0.0, -0.0, 1.0]]
center_of_mass              = [-0.0, -0.0, 56.811989]
barycenter                  = [-7e-06, 2e-06, 52.349564]
aabb_max                    = [73.0896, 73.0896, 134.656998]
meshlabserver cmd = meshlabserver -l c:\users\mathur\appdata\local\temp\tmpy2h2zs.txt -i "cq_3.stl" -i "openscad_3.stl" -s "c:\users\mathur\appdata\local\temp\tmp7r0z0n.mlx"
***START OF MESHLAB STDOUT & STDERR***
***END OF MESHLAB STDOUT & STDERR***
meshlabserver return code = 0

max_distance     = 0.027523
rms_distance     = 0.001327
number_points    = 2999
mean_distance    = 0.001042
min_distance     = 0.0
meshlabserver cmd = meshlabserver -l c:\users\mathur\appdata\local\temp\tmp3e4a7n.txt -i "openscad_3.stl" -s "c:\users\mathur\appdata\local\temp\tmp6qdzj6.mlx"
***START OF MESHLAB STDOUT & STDERR***
***END OF MESHLAB STDOUT & STDERR***
meshlabserver return code = 0

inertia_tensor              = [[795639296.0, 0.153286, -0.12091], [0.153286, 795639296.0, 0.124754], [-0.12091, 0.124754, 867376640.0]]
volume_mm3                  = 622525.375
aabb_min                    = [-55.338402, -55.338402, -37.6385]
total_edge_length           = 230525.078125
volume_cm3                  = 622.525375
area_cm2                    = nan
axis_momenta                = [795639296.0, 795639296.0, 867376640.0]
vert_barycenter             = [0.0, 0.0, 11.028678]
aabb_diag                   = 189.470398
total_edge_length_incl_faux = 230525.078125
area_mm2                    = nan
aabb_size                   = [110.676804, 110.676804, 106.772293]
principal_axes              = [[0.416971, -0.90892, 0.0], [-0.90892, -0.416971, -0.0], [0.0, -0.0, -1.0]]
center_of_mass              = [0.0, -0.0, 14.903555]
barycenter                  = [2e-06, 7e-06, 18.453444]
aabb_max                    = [55.338402, 55.338402, 69.133797]
meshlabserver cmd = meshlabserver -l c:\users\mathur\appdata\local\temp\tmpuzsytg.txt -i "cq_4.stl" -i "openscad_4.stl" -s "c:\users\mathur\appdata\local\temp\tmpkxshho.mlx"
***START OF MESHLAB STDOUT & STDERR***
***END OF MESHLAB STDOUT & STDERR***
meshlabserver return code = 0

max_distance     = 0.460573
rms_distance     = 0.023803
number_points    = 3000
mean_distance    = 0.001993
min_distance     = 0.0
meshlabserver cmd = meshlabserver -l c:\users\mathur\appdata\local\temp\tmpdn3qku.txt -i "openscad_4.stl" -s "c:\users\mathur\appdata\local\temp\tmp1smhug.mlx"
***START OF MESHLAB STDOUT & STDERR***
***END OF MESHLAB STDOUT & STDERR***
meshlabserver return code = 0

inertia_tensor              = [[309653632.0, -0.018869, -0.077552], [-0.018869, 309653632.0, -0.032207], [-0.077552, -0.032207, 259983824.0]]
volume_mm3                  = 321672.28125
aabb_min                    = [-38.789398, -38.789398, 0.0]
total_edge_length           = 196579.875
volume_cm3                  = 321.67228125
area_cm2                    = nan
axis_momenta                = [259983824.0, 309653568.0, 309653568.0]
vert_barycenter             = [0.0, 0.0, 77.181534]
aabb_diag                   = 143.709351
total_edge_length_incl_faux = 196579.875
area_mm2                    = nan
aabb_size                   = [77.578796, 77.578796, 92.819397]
principal_axes              = [[-0.0, -0.0, -1.0], [-0.205403, -0.978677, 0.0], [-0.978677, 0.205403, 0.0]]
center_of_mass              = [0.0, 0.0, 39.916847]
barycenter                  = [0.0, 0.0, 41.182331]
aabb_max                    = [38.789398, 38.789398, 92.819397]
meshlabserver cmd = meshlabserver -l c:\users\mathur\appdata\local\temp\tmpranjoj.txt -i "cq_5.stl" -i "openscad_5.stl" -s "c:\users\mathur\appdata\local\temp\tmpkfudty.mlx"
***START OF MESHLAB STDOUT & STDERR***
***END OF MESHLAB STDOUT & STDERR***
meshlabserver return code = 0

max_distance     = 4.861931
rms_distance     = 0.525592
number_points    = 3000
mean_distance    = 0.087467
min_distance     = 0.0
meshlabserver cmd = meshlabserver -l c:\users\mathur\appdata\local\temp\tmpfbxtnh.txt -i "openscad_5.stl" -s "c:\users\mathur\appdata\local\temp\tmptjsk0p.mlx"
***START OF MESHLAB STDOUT & STDERR***
***END OF MESHLAB STDOUT & STDERR***
meshlabserver return code = 0

inertia_tensor              = [[3284514816.0, -2.997956, -1.665673], [-2.997956, 3284514304.0, -1.757434], [-1.665673, -1.757434, 4189249280.0]]
volume_mm3                  = 1077847.125
aabb_min                    = [-75.357903, -75.357903, -8.16706]
total_edge_length           = 234834.28125
volume_cm3                  = 1077.847125
area_cm2                    = nan
axis_momenta                = [3284514304.0, 3284514560.0, 4189249280.0]
vert_barycenter             = [0.0, 0.0, 67.258705]
aabb_diag                   = 255.455856
total_edge_length_incl_faux = 234834.28125
area_mm2                    = nan
aabb_size                   = [150.715805, 150.715805, 140.809052]
principal_axes              = [[0.009487, 0.999955, 0.0], [-0.999955, 0.009487, -0.0], [-0.0, -0.0, 1.0]]
center_of_mass              = [0.0, 0.0, 53.84034]
barycenter                  = [4e-06, 0.0, 55.950623]
aabb_max                    = [75.357903, 75.357903, 132.641998]
meshlabserver cmd = meshlabserver -l c:\users\mathur\appdata\local\temp\tmpgdjdcy.txt -i "cq_6.stl" -i "openscad_6.stl" -s "c:\users\mathur\appdata\local\temp\tmpqv_cuv.mlx"
***START OF MESHLAB STDOUT & STDERR***
***END OF MESHLAB STDOUT & STDERR***
meshlabserver return code = 0

max_distance     = 0.864221
rms_distance     = 0.016829
number_points    = 2999
mean_distance    = 0.001411
min_distance     = 0.0
meshlabserver cmd = meshlabserver -l c:\users\mathur\appdata\local\temp\tmp4hczjk.txt -i "openscad_6.stl" -s "c:\users\mathur\appdata\local\temp\tmpeb_5q7.mlx"
***START OF MESHLAB STDOUT & STDERR***
***END OF MESHLAB STDOUT & STDERR***
meshlabserver return code = 0

inertia_tensor              = [[1580190720.0, 0.09274, -0.549899], [0.09274, 1580190720.0, -0.476624], [-0.549899, -0.476624, 1683625856.0]]
volume_mm3                  = 959728.0
aabb_min                    = [-60.727501, -60.727501, -14.7943]
total_edge_length           = 234937.484375
volume_cm3                  = 959.728
area_cm2                    = nan
axis_momenta                = [1580190464.0, 1580190464.0, 1683625856.0]
vert_barycenter             = [0.0, 0.0, 50.405609]
aabb_diag                   = 209.868195
total_edge_length_incl_faux = 234937.484375
area_mm2                    = nan
aabb_size                   = [121.455002, 121.455002, 120.590302]
principal_axes              = [[0.999991, -0.00423, 0.0], [0.00423, 0.999991, 0.0], [-0.0, -0.0, 1.0]]
center_of_mass              = [-0.0, -0.0, 42.031227]
barycenter                  = [2e-06, 1e-06, 41.10202]
aabb_max                    = [60.727501, 60.727501, 105.795998]
meshlabserver cmd = meshlabserver -l c:\users\mathur\appdata\local\temp\tmpuatsur.txt -i "cq_7.stl" -i "openscad_7.stl" -s "c:\users\mathur\appdata\local\temp\tmp9bgsxz.mlx"
***START OF MESHLAB STDOUT & STDERR***
***END OF MESHLAB STDOUT & STDERR***
meshlabserver return code = 0

max_distance     = 2.285692
rms_distance     = 0.216192
number_points    = 2999
mean_distance    = 0.057816
min_distance     = 0.0
meshlabserver cmd = meshlabserver -l c:\users\mathur\appdata\local\temp\tmpmdsaek.txt -i "openscad_7.stl" -s "c:\users\mathur\appdata\local\temp\tmpxxfd9f.mlx"
***START OF MESHLAB STDOUT & STDERR***
***END OF MESHLAB STDOUT & STDERR***
meshlabserver return code = 0

inertia_tensor              = [[45540076.0, -0.000302, -0.005781], [-0.000302, 45540076.0, 0.000407], [-0.005781, 0.000407, 7397262.0]]
volume_mm3                  = 51892.664063
aabb_min                    = [-15.1367, -15.1367, 0.0]
total_edge_length           = 168057.078125
volume_cm3                  = 51.892664063
area_cm2                    = nan
axis_momenta                = [7397262.0, 45540080.0, 45540080.0]
vert_barycenter             = [0.0, 0.0, 94.008827]
aabb_diag                   = 111.310867
total_edge_length_incl_faux = 168057.078125
area_mm2                    = nan
aabb_size                   = [30.273399, 30.273399, 102.748001]
principal_axes              = [[0.0, -0.0, 1.0], [0.156773, 0.987635, -0.0], [-0.987635, 0.156773, 0.0]]
center_of_mass              = [0.0, -0.0, 49.054569]
barycenter                  = [0.0, -1e-06, 49.604408]
aabb_max                    = [15.1367, 15.1367, 102.748001]
meshlabserver cmd = meshlabserver -l c:\users\mathur\appdata\local\temp\tmphhsk74.txt -i "cq_8.stl" -i "openscad_8.stl" -s "c:\users\mathur\appdata\local\temp\tmpwxt6ww.mlx"
***START OF MESHLAB STDOUT & STDERR***
***END OF MESHLAB STDOUT & STDERR***
meshlabserver return code = 0

max_distance     = 0.004414
rms_distance     = 0.001517
number_points    = 3000
mean_distance    = 0.001287
min_distance     = 0.0
meshlabserver cmd = meshlabserver -l c:\users\mathur\appdata\local\temp\tmpv1qxfy.txt -i "openscad_8.stl" -s "c:\users\mathur\appdata\local\temp\tmpctydwm.mlx"
***START OF MESHLAB STDOUT & STDERR***
***END OF MESHLAB STDOUT & STDERR***
meshlabserver return code = 0

inertia_tensor              = [[1420282752.0, -0.01988, 0.084333], [-0.01988, 1420282752.0, 0.255247], [0.084333, 0.255247, 1430609920.0]]
volume_mm3                  = 943279.5
aabb_min                    = [-61.1408, -61.1408, -59.950001]
total_edge_length           = 231178.875
volume_cm3                  = 943.2795
area_cm2                    = nan
axis_momenta                = [1420282752.0, 1420282752.0, 1430609920.0]
vert_barycenter             = [0.0, 0.0, 0.376741]
aabb_diag                   = 211.67308
total_edge_length_incl_faux = 231178.875
area_mm2                    = nan
aabb_size                   = [122.281601, 122.281601, 122.065201]
principal_axes              = [[0.041966, 0.999119, -0.0], [-0.999119, 0.041966, 0.0], [-0.0, -0.0, -1.0]]
center_of_mass              = [-0.0, 0.0, 0.853771]
barycenter                  = [3e-06, 8e-06, 2.888104]
aabb_max                    = [61.1408, 61.1408, 62.1152]
meshlabserver cmd = meshlabserver -l c:\users\mathur\appdata\local\temp\tmpylo3iv.txt -i "cq_9.stl" -i "openscad_9.stl" -s "c:\users\mathur\appdata\local\temp\tmpqbsy1z.mlx"
***START OF MESHLAB STDOUT & STDERR***
***END OF MESHLAB STDOUT & STDERR***
meshlabserver return code = 0

max_distance     = 9.266633
rms_distance     = 2.212924
number_points    = 3000
mean_distance    = 1.713127
min_distance     = 0.0
meshlabserver cmd = meshlabserver -l c:\users\mathur\appdata\local\temp\tmp0e9ktd.txt -i "openscad_9.stl" -s "c:\users\mathur\appdata\local\temp\tmp03muje.mlx"
***START OF MESHLAB STDOUT & STDERR***
***END OF MESHLAB STDOUT & STDERR***
meshlabserver return code = 0

inertia_tensor              = [[2094482304.0, 0.14868, -0.368245], [0.14868, 2094482304.0, 3.434476], [-0.368245, 3.434476, 2296294144.0]]
volume_mm3                  = 1146614.75
aabb_min                    = [-67.499901, -67.499901, -70.693497]
total_edge_length           = 238517.125
volume_cm3                  = 1146.61475
area_cm2                    = nan
axis_momenta                = [2094482176.0, 2094482176.0, 2296294144.0]
vert_barycenter             = [0.0, 0.0, -11.94422]
aabb_diag                   = 230.923965
total_edge_length_incl_faux = 238517.125
area_mm2                    = nan
aabb_size                   = [134.999802, 134.999802, 129.907593]
principal_axes              = [[0.999984, -0.005612, 0.0], [0.005612, 0.999984, -0.0], [-0.0, 0.0, 1.0]]
center_of_mass              = [0.0, -0.0, -7.378737]
barycenter                  = [-7e-06, 7e-06, -0.339502]
aabb_max                    = [67.499901, 67.499901, 59.2141]
meshlabserver cmd = meshlabserver -l c:\users\mathur\appdata\local\temp\tmpopdgnf.txt -i "cq_10.stl" -i "openscad_10.stl" -s "c:\users\mathur\appdata\local\temp\tmpzngefq.mlx"
***START OF MESHLAB STDOUT & STDERR***
***END OF MESHLAB STDOUT & STDERR***
meshlabserver return code = 0

max_distance     = 6.863556
rms_distance     = 1.04566
number_points    = 2999
mean_distance    = 0.168805
min_distance     = 0.0
meshlabserver cmd = meshlabserver -l c:\users\mathur\appdata\local\temp\tmpx2ntwk.txt -i "openscad_10.stl" -s "c:\users\mathur\appdata\local\temp\tmprweifs.mlx"
***START OF MESHLAB STDOUT & STDERR***
***END OF MESHLAB STDOUT & STDERR***
meshlabserver return code = 0

inertia_tensor              = [[929188800.0, 0.011616, 0.136084], [0.011616, 929188800.0, 0.126728], [0.136084, 0.126728, 964763136.0]]
volume_mm3                  = 681147.25
aabb_min                    = [-56.122101, -56.122101, -31.4809]
total_edge_length           = 191911.625
volume_cm3                  = 681.14725
area_cm2                    = nan
axis_momenta                = [929188736.0, 929188736.0, 964763136.0]
vert_barycenter             = [0.0, 0.0, 26.538458]
aabb_diag                   = 194.382126
total_edge_length_incl_faux = 191911.625
area_mm2                    = nan
aabb_size                   = [112.244202, 112.244202, 112.191299]
principal_axes              = [[-0.001457, 0.999999, -0.0], [-0.999999, -0.001457, 0.0], [-0.0, -0.0, -1.0]]
center_of_mass              = [-0.0, -0.0, 23.711943]
barycenter                  = [-3e-06, -2e-06, 24.639751]
aabb_max                    = [56.122101, 56.122101, 80.710403]
meshlabserver cmd = meshlabserver -l c:\users\mathur\appdata\local\temp\tmpgvplw2.txt -i "cq_11.stl" -i "openscad_11.stl" -s "c:\users\mathur\appdata\local\temp\tmphsvaff.mlx"
***START OF MESHLAB STDOUT & STDERR***
***END OF MESHLAB STDOUT & STDERR***
meshlabserver return code = 0

max_distance     = 9.836258
rms_distance     = 1.033365
number_points    = 2988
mean_distance    = 0.182036
min_distance     = 0.0
meshlabserver cmd = meshlabserver -l c:\users\mathur\appdata\local\temp\tmpaskqqu.txt -i "openscad_11.stl" -s "c:\users\mathur\appdata\local\temp\tmp2wpn5l.mlx"
***START OF MESHLAB STDOUT & STDERR***
***END OF MESHLAB STDOUT & STDERR***
meshlabserver return code = 0

inertia_tensor              = [[17513123840.0, -2.865362, -12.256269], [-2.865362, 17513121792.0, -8.706028], [-12.256269, -8.706028, 19983388672.0]]
volume_mm3                  = 3602940.5
aabb_min                    = [-102.702003, -102.702003, -41.440102]
total_edge_length           = 390197.3125
volume_cm3                  = 3602.9405
area_cm2                    = nan
axis_momenta                = [17513123840.0, 17513123840.0, 19983388672.0]
vert_barycenter             = [0.0, 0.0, 57.342476]
aabb_diag                   = 353.18045
total_edge_length_incl_faux = 390197.3125
area_mm2                    = nan
aabb_size                   = [205.404007, 205.404007, 200.885101]
principal_axes              = [[-0.005568, -0.999985, -0.0], [-0.999985, 0.005568, -0.0], [-0.0, -0.0, 1.0]]
center_of_mass              = [0.0, 0.0, 54.093277]
barycenter                  = [-0.0, -3e-06, 58.238079]
aabb_max                    = [102.702003, 102.702003, 159.445007]
meshlabserver cmd = meshlabserver -l c:\users\mathur\appdata\local\temp\tmphpqzam.txt -i "cq_12.stl" -i "openscad_12.stl" -s "c:\users\mathur\appdata\local\temp\tmp9nveft.mlx"
***START OF MESHLAB STDOUT & STDERR***
***END OF MESHLAB STDOUT & STDERR***
meshlabserver return code = 0

max_distance     = 0.284714
rms_distance     = 0.006362
number_points    = 2999
mean_distance    = 0.001841
min_distance     = 0.0
meshlabserver cmd = meshlabserver -l c:\users\mathur\appdata\local\temp\tmpx6drgv.txt -i "openscad_12.stl" -s "c:\users\mathur\appdata\local\temp\tmpdv2nug.mlx"
***START OF MESHLAB STDOUT & STDERR***
***END OF MESHLAB STDOUT & STDERR***
meshlabserver return code = 0

inertia_tensor              = [[5933137920.0, 0.155465, -0.267056], [0.155465, 5933137920.0, -0.940727], [-0.267056, -0.940727, 6234167296.0]]
volume_mm3                  = 2091465.375
aabb_min                    = [-82.346703, -82.346703, -71.220802]
total_edge_length           = 285264.8125
volume_cm3                  = 2091.465375
area_cm2                    = nan
axis_momenta                = [5933137920.0, 5933137920.0, 6234167296.0]
vert_barycenter             = [0.0, 0.0, 8.476089]
aabb_diag                   = 284.701508
total_edge_length_incl_faux = 285264.8125
area_mm2                    = nan
aabb_size                   = [164.693405, 164.693405, 163.728806]
principal_axes              = [[0.003311, -0.999995, -0.0], [-0.999995, -0.003311, -0.0], [-0.0, -0.0, 1.0]]
center_of_mass              = [0.0, 0.0, 7.789509]
barycenter                  = [5e-06, 3e-06, 15.923424]
aabb_max                    = [82.346703, 82.346703, 92.508003]
meshlabserver cmd = meshlabserver -l c:\users\mathur\appdata\local\temp\tmpmfehxj.txt -i "cq_13.stl" -i "openscad_13.stl" -s "c:\users\mathur\appdata\local\temp\tmpdscb9p.mlx"
***START OF MESHLAB STDOUT & STDERR***
***END OF MESHLAB STDOUT & STDERR***
meshlabserver return code = 0

max_distance     = 0.065033
rms_distance     = 0.001932
number_points    = 2999
mean_distance    = 0.001173
min_distance     = 0.0
meshlabserver cmd = meshlabserver -l c:\users\mathur\appdata\local\temp\tmp8kxxml.txt -i "openscad_13.stl" -s "c:\users\mathur\appdata\local\temp\tmppcofqk.mlx"
***START OF MESHLAB STDOUT & STDERR***
***END OF MESHLAB STDOUT & STDERR***
meshlabserver return code = 0

inertia_tensor              = [[1201780992.0, -0.392634, -0.124719], [-0.392634, 1201780992.0, 0.444099], [-0.124719, 0.444099, 1215534208.0]]
volume_mm3                  = 861898.75
aabb_min                    = [-58.874401, -58.874401, -38.261398]
total_edge_length           = 229782.25
volume_cm3                  = 861.89875
area_cm2                    = nan
axis_momenta                = [1201780992.0, 1201780992.0, 1215534208.0]
vert_barycenter             = [0.0, 0.0, 21.836285]
aabb_diag                   = 203.936508
total_edge_length_incl_faux = 229782.25
area_mm2                    = nan
aabb_size                   = [117.748802, 117.748802, 117.730797]
principal_axes              = [[0.848261, 0.529578, -0.0], [0.529578, -0.848261, 0.0], [-0.0, 0.0, 1.0]]
center_of_mass              = [-0.0, -0.0, 20.42934]
barycenter                  = [-6e-06, 4e-06, 20.365726]
aabb_max                    = [58.874401, 58.874401, 79.469398]
meshlabserver cmd = meshlabserver -l c:\users\mathur\appdata\local\temp\tmp1phrv4.txt -i "cq_14.stl" -i "openscad_14.stl" -s "c:\users\mathur\appdata\local\temp\tmpq0zb8m.mlx"
***START OF MESHLAB STDOUT & STDERR***
***END OF MESHLAB STDOUT & STDERR***
meshlabserver return code = 0

max_distance     = 9.967903
rms_distance     = 5.485595
number_points    = 2285
mean_distance    = 4.396468
min_distance     = 0.0
meshlabserver cmd = meshlabserver -l c:\users\mathur\appdata\local\temp\tmpdkrm02.txt -i "openscad_14.stl" -s "c:\users\mathur\appdata\local\temp\tmpnaxtho.mlx"
***START OF MESHLAB STDOUT & STDERR***
***END OF MESHLAB STDOUT & STDERR***
meshlabserver return code = 0

inertia_tensor              = [[2238129664.0, 0.129756, 0.342564], [0.129756, 2238129664.0, -1.81208], [0.342564, -1.81208, 2538443776.0]]
volume_mm3                  = 1205809.375
aabb_min                    = [-69.048698, -69.048698, -82.814598]
total_edge_length           = 225817.0
volume_cm3                  = 1205.809375
area_cm2                    = nan
axis_momenta                = [2238129664.0, 2238129920.0, 2538443776.0]
vert_barycenter             = [0.0, 0.0, -25.113186]
aabb_diag                   = 234.955414
total_edge_length_incl_faux = 225817.0
area_mm2                    = nan
aabb_size                   = [138.097397, 138.097397, 130.622589]
principal_axes              = [[0.999999, -0.00143, -0.0], [-0.00143, -0.999999, -0.0], [-0.0, 0.0, -1.0]]
center_of_mass              = [0.0, 0.0, -19.426283]
barycenter                  = [2e-06, -4e-06, -11.029783]
aabb_max                    = [69.048698, 69.048698, 47.807999]
meshlabserver cmd = meshlabserver -l c:\users\mathur\appdata\local\temp\tmpgb9ggi.txt -i "cq_15.stl" -i "openscad_15.stl" -s "c:\users\mathur\appdata\local\temp\tmppnvxdb.mlx"
***START OF MESHLAB STDOUT & STDERR***
***END OF MESHLAB STDOUT & STDERR***
meshlabserver return code = 0

max_distance     = 4.712472
rms_distance     = 0.633056
number_points    = 2999
mean_distance    = 0.140951
min_distance     = 0.0
meshlabserver cmd = meshlabserver -l c:\users\mathur\appdata\local\temp\tmpk0gvaj.txt -i "openscad_15.stl" -s "c:\users\mathur\appdata\local\temp\tmphtboxp.mlx"
***START OF MESHLAB STDOUT & STDERR***
***END OF MESHLAB STDOUT & STDERR***
meshlabserver return code = 0

inertia_tensor              = [[154291088.0, -0.004201, 0.003706], [-0.004201, 154291088.0, 0.001321], [0.003706, 0.001321, 164208128.0]]
volume_mm3                  = 224835.703125
aabb_min                    = [-37.9231, -37.9231, -6.63603]
total_edge_length           = 167335.25
volume_cm3                  = 224.835703125
area_cm2                    = nan
axis_momenta                = [154291088.0, 154291104.0, 164208128.0]
vert_barycenter             = [0.0, 0.0, 36.604435]
aabb_diag                   = 131.174866
total_edge_length_incl_faux = 167335.25
area_mm2                    = nan
aabb_size                   = [75.846199, 75.846199, 75.508629]
principal_axes              = [[0.000952, 1.0, -0.0], [-1.0, 0.000952, 0.0], [0.0, 0.0, 1.0]]
center_of_mass              = [0.0, -0.0, 29.097372]
barycenter                  = [-0.0, -1e-06, 26.04586]
aabb_max                    = [37.9231, 37.9231, 68.872597]
meshlabserver cmd = meshlabserver -l c:\users\mathur\appdata\local\temp\tmp61vlor.txt -i "cq_16.stl" -i "openscad_16.stl" -s "c:\users\mathur\appdata\local\temp\tmpn35gcu.mlx"
***START OF MESHLAB STDOUT & STDERR***
***END OF MESHLAB STDOUT & STDERR***
meshlabserver return code = 0

max_distance     = 7.008694
rms_distance     = 0.77345
number_points    = 3000
mean_distance    = 0.132334
min_distance     = 0.0
meshlabserver cmd = meshlabserver -l c:\users\mathur\appdata\local\temp\tmpagdufl.txt -i "openscad_16.stl" -s "c:\users\mathur\appdata\local\temp\tmpfprtyk.mlx"
***START OF MESHLAB STDOUT & STDERR***
***END OF MESHLAB STDOUT & STDERR***
meshlabserver return code = 0

inertia_tensor              = [[318702944.0, -0.336813, -0.286332], [-0.336813, 318703200.0, -3.528743], [-0.286332, -3.528743, 424078240.0]]
volume_mm3                  = 265013.5625
aabb_min                    = [-53.760101, -53.760101, -31.030001]
total_edge_length           = 139401.515625
volume_cm3                  = 265.0135625
area_cm2                    = nan
axis_momenta                = [318702944.0, 318703200.0, 424078240.0]
vert_barycenter             = [0.0, 0.0, 2.207481]
aabb_diag                   = 175.52739
total_edge_length_incl_faux = 139401.515625
area_mm2                    = nan
aabb_size                   = [107.520203, 107.520203, 87.685104]
principal_axes              = [[0.999999, 0.001326, 0.0], [0.001326, -0.999999, -0.0], [-0.0, -0.0, 1.0]]
center_of_mass              = [-0.0, 0.0, 5.942593]
barycenter                  = [1e-06, 0.0, 14.345925]
aabb_max                    = [53.760101, 53.760101, 56.655102]
meshlabserver cmd = meshlabserver -l c:\users\mathur\appdata\local\temp\tmphdqteq.txt -i "cq_17.stl" -i "openscad_17.stl" -s "c:\users\mathur\appdata\local\temp\tmpa3zdxn.mlx"
***START OF MESHLAB STDOUT & STDERR***
***END OF MESHLAB STDOUT & STDERR***
meshlabserver return code = 0

max_distance     = 3.841904
rms_distance     = 0.568567
number_points    = 3000
mean_distance    = 0.085429
min_distance     = 0.0
meshlabserver cmd = meshlabserver -l c:\users\mathur\appdata\local\temp\tmpvteyt9.txt -i "openscad_17.stl" -s "c:\users\mathur\appdata\local\temp\tmp831he1.mlx"
***START OF MESHLAB STDOUT & STDERR***
***END OF MESHLAB STDOUT & STDERR***
meshlabserver return code = 0

inertia_tensor              = [[126387360.0, 0.002875, 0.019136], [0.002875, 126387360.0, 0.028886], [0.019136, 0.028886, 95609224.0]]
volume_mm3                  = 193766.484375
aabb_min                    = [-31.393299, -31.393299, 0.0]
total_edge_length           = 165104.734375
volume_cm3                  = 193.766484375
area_cm2                    = nan
axis_momenta                = [95609224.0, 126387352.0, 126387352.0]
vert_barycenter             = [0.0, 0.0, 64.513084]
aabb_diag                   = 117.943367
total_edge_length_incl_faux = 165104.734375
area_mm2                    = nan
aabb_size                   = [62.786598, 62.786598, 77.629402]
principal_axes              = [[0.0, 0.0, -1.0], [0.133965, -0.990986, -0.0], [0.990986, 0.133965, 0.0]]
center_of_mass              = [-0.0, -0.0, 34.105392]
barycenter                  = [-0.0, -0.0, 33.070942]
aabb_max                    = [31.393299, 31.393299, 77.629402]
meshlabserver cmd = meshlabserver -l c:\users\mathur\appdata\local\temp\tmpco7ryg.txt -i "cq_18.stl" -i "openscad_18.stl" -s "c:\users\mathur\appdata\local\temp\tmp_qcps0.mlx"
***START OF MESHLAB STDOUT & STDERR***
***END OF MESHLAB STDOUT & STDERR***
meshlabserver return code = 0

max_distance     = 5.576496
rms_distance     = 0.854802
number_points    = 3000
mean_distance    = 0.215876
min_distance     = 0.0
meshlabserver cmd = meshlabserver -l c:\users\mathur\appdata\local\temp\tmptyhzul.txt -i "openscad_18.stl" -s "c:\users\mathur\appdata\local\temp\tmpicafxt.mlx"
***START OF MESHLAB STDOUT & STDERR***
***END OF MESHLAB STDOUT & STDERR***
meshlabserver return code = 0

inertia_tensor              = [[167704384.0, 0.031541, -0.323876], [0.031541, 167704368.0, -0.506674], [-0.323876, -0.506674, 195852992.0]]
volume_mm3                  = 225824.515625
aabb_min                    = [-41.771, -41.771, -29.530899]
total_edge_length           = 119250.601563
volume_cm3                  = 225.824515625
area_cm2                    = nan
axis_momenta                = [167704368.0, 167704384.0, 195852992.0]
vert_barycenter             = [0.0, 0.0, 4.192344]
aabb_diag                   = 141.564209
total_edge_length_incl_faux = 119250.601563
area_mm2                    = nan
aabb_size                   = [83.542, 83.542, 77.986496]
principal_axes              = [[0.0019, -0.999998, -0.0], [-0.999998, -0.0019, -0.0], [-0.0, -0.0, 1.0]]
center_of_mass              = [0.0, 0.0, 7.422109]
barycenter                  = [-0.0, -0.0, 12.012548]
aabb_max                    = [41.771, 41.771, 48.455601]
meshlabserver cmd = meshlabserver -l c:\users\mathur\appdata\local\temp\tmpbmlv6d.txt -i "cq_19.stl" -i "openscad_19.stl" -s "c:\users\mathur\appdata\local\temp\tmp9gi_bb.mlx"
***START OF MESHLAB STDOUT & STDERR***
***END OF MESHLAB STDOUT & STDERR***
meshlabserver return code = 0

max_distance     = 0.002195
rms_distance     = 0.000928
number_points    = 3000
mean_distance    = 0.000743
min_distance     = 0.0
meshlabserver cmd = meshlabserver -l c:\users\mathur\appdata\local\temp\tmp66hxsx.txt -i "openscad_19.stl" -s "c:\users\mathur\appdata\local\temp\tmpe_8yf5.mlx"
***START OF MESHLAB STDOUT & STDERR***
***END OF MESHLAB STDOUT & STDERR***
meshlabserver return code = 0

inertia_tensor              = [[46265840.0, 5e-05, 0.009884], [5e-05, 46265840.0, 0.005579], [0.009884, 0.005579, 10873662.0]]
volume_mm3                  = 60571.855469
aabb_min                    = [-17.0387, -17.0387, 0.0]
total_edge_length           = 139653.46875
volume_cm3                  = 60.571855469
area_cm2                    = nan
axis_momenta                = [10873662.0, 46265856.0, 46265856.0]
vert_barycenter             = [0.0, 0.0, 85.429138]
aabb_diag                   = 106.144905
total_edge_length_incl_faux = 139653.46875
area_mm2                    = nan
aabb_size                   = [34.0774, 34.0774, 94.573799]
principal_axes              = [[0.0, 0.0, -1.0], [0.000492, -1.0, -0.0], [1.0, 0.000492, 0.0]]
center_of_mass              = [0.0, -0.0, 44.836765]
barycenter                  = [0.0, -0.0, 45.141102]
aabb_max                    = [17.0387, 17.0387, 94.573799]
meshlabserver cmd = meshlabserver -l c:\users\mathur\appdata\local\temp\tmpex_kfp.txt -i "cq_20.stl" -i "openscad_20.stl" -s "c:\users\mathur\appdata\local\temp\tmpdkfsi4.mlx"
***START OF MESHLAB STDOUT & STDERR***
***END OF MESHLAB STDOUT & STDERR***
meshlabserver return code = 0

max_distance     = 1.090239
rms_distance     = 0.119334
number_points    = 3000
mean_distance    = 0.017958
min_distance     = 0.0
meshlabserver cmd = meshlabserver -l c:\users\mathur\appdata\local\temp\tmpcmzsek.txt -i "openscad_20.stl" -s "c:\users\mathur\appdata\local\temp\tmpgq6zxj.mlx"
***START OF MESHLAB STDOUT & STDERR***
***END OF MESHLAB STDOUT & STDERR***
meshlabserver return code = 0

inertia_tensor              = [[2827976.25, -5.2e-05, -0.000284], [-5.2e-05, 2827976.25, 0.00029], [-0.000284, 0.00029, 2313851.5]]
volume_mm3                  = 19693.845703
aabb_min                    = [-15.1039, -15.1039, 0.0]
total_edge_length           = 74990.703125
volume_cm3                  = 19.693845703
area_cm2                    = nan
axis_momenta                = [2313851.5, 2827976.25, 2827976.25]
vert_barycenter             = [0.0, 0.0, 29.192846]
aabb_diag                   = 55.625839
total_edge_length_incl_faux = 74990.703125
area_mm2                    = nan
aabb_size                   = [30.2078, 30.2078, 35.625999]
principal_axes              = [[0.0, -0.0, 1.0], [-0.999465, -0.032717, 0.0], [0.032717, -0.999465, -0.0]]
center_of_mass              = [-0.0, -0.0, 15.550982]
barycenter                  = [1e-06, 0.0, 15.330623]
aabb_max                    = [15.1039, 15.1039, 35.625999]
meshlabserver cmd = meshlabserver -l c:\users\mathur\appdata\local\temp\tmpvcjoy5.txt -i "cq_21.stl" -i "openscad_21.stl" -s "c:\users\mathur\appdata\local\temp\tmp9krdt8.mlx"
***START OF MESHLAB STDOUT & STDERR***
***END OF MESHLAB STDOUT & STDERR***
meshlabserver return code = 0

max_distance     = 3.428042
rms_distance     = 1.815194
number_points    = 2999
mean_distance    = 1.443305
min_distance     = 0.0
meshlabserver cmd = meshlabserver -l c:\users\mathur\appdata\local\temp\tmpqckelh.txt -i "openscad_21.stl" -s "c:\users\mathur\appdata\local\temp\tmpjbl9qh.mlx"
***START OF MESHLAB STDOUT & STDERR***
***END OF MESHLAB STDOUT & STDERR***
meshlabserver return code = 0

inertia_tensor              = [[6160005.0, -0.010845, 0.000919], [-0.010845, 6160002.5, 0.150752], [0.000919, 0.150752, 7518722.5]]
volume_mm3                  = 34430.269531
aabb_min                    = [-21.8288, -21.8288, -25.2131]
total_edge_length           = 69684.53125
volume_cm3                  = 34.430269531
area_cm2                    = nan
axis_momenta                = [6160002.5, 6160005.0, 7518722.5]
vert_barycenter             = [0.0, 0.0, -8.428984]
aabb_diag                   = 73.319595
total_edge_length_incl_faux = 69684.53125
area_mm2                    = nan
aabb_size                   = [43.6576, 43.6576, 39.5448]
principal_axes              = [[0.004281, 0.999991, -0.0], [-0.999991, 0.004281, 0.0], [0.0, 0.0, 1.0]]
center_of_mass              = [-0.0, -0.0, -6.450089]
barycenter                  = [-2e-06, 1e-06, -3.080628]
aabb_max                    = [21.8288, 21.8288, 14.3317]
meshlabserver cmd = meshlabserver -l c:\users\mathur\appdata\local\temp\tmpo3lgnq.txt -i "cq_22.stl" -i "openscad_22.stl" -s "c:\users\mathur\appdata\local\temp\tmpbfk78g.mlx"
***START OF MESHLAB STDOUT & STDERR***
***END OF MESHLAB STDOUT & STDERR***
meshlabserver return code = 0

max_distance     = 0.428344
rms_distance     = 0.010012
number_points    = 2999
mean_distance    = 0.000917
min_distance     = 0.0
meshlabserver cmd = meshlabserver -l c:\users\mathur\appdata\local\temp\tmprawoga.txt -i "openscad_22.stl" -s "c:\users\mathur\appdata\local\temp\tmp_7udnd.mlx"
***START OF MESHLAB STDOUT & STDERR***
***END OF MESHLAB STDOUT & STDERR***
meshlabserver return code = 0

inertia_tensor              = [[165857536.0, 0.028179, -0.035122], [0.028179, 165857536.0, -0.047668], [-0.035122, -0.047668, 160437248.0]]
volume_mm3                  = 234166.546875
aabb_min                    = [-36.545399, -36.545399, 0.0]
total_edge_length           = 111429.226563
volume_cm3                  = 234.166546875
area_cm2                    = nan
axis_momenta                = [160437248.0, 165857552.0, 165857552.0]
vert_barycenter             = [0.0, 0.0, 59.956505]
aabb_diag                   = 127.64373
total_edge_length_incl_faux = 111429.226563
area_mm2                    = nan
aabb_size                   = [73.090797, 73.090797, 74.889198]
principal_axes              = [[0.0, 0.0, 1.0], [-0.99997, 0.007755, 0.0], [-0.007755, -0.99997, 0.0]]
center_of_mass              = [0.0, 0.0, 32.06942]
barycenter                  = [-2e-06, -1e-06, 31.502596]
aabb_max                    = [36.545399, 36.545399, 74.889198]
meshlabserver cmd = meshlabserver -l c:\users\mathur\appdata\local\temp\tmpqlq8mh.txt -i "cq_23.stl" -i "openscad_23.stl" -s "c:\users\mathur\appdata\local\temp\tmpgu4x76.mlx"
***START OF MESHLAB STDOUT & STDERR***
***END OF MESHLAB STDOUT & STDERR***
meshlabserver return code = 0

max_distance     = 2.623264
rms_distance     = 0.143346
number_points    = 2999
mean_distance    = 0.012721
min_distance     = 0.0
meshlabserver cmd = meshlabserver -l c:\users\mathur\appdata\local\temp\tmp5srdhw.txt -i "openscad_23.stl" -s "c:\users\mathur\appdata\local\temp\tmp23rahj.mlx"
***START OF MESHLAB STDOUT & STDERR***
***END OF MESHLAB STDOUT & STDERR***
meshlabserver return code = 0

inertia_tensor              = [[1316550656.0, -0.108041, 0.053345], [-0.108041, 1316550656.0, -0.13129], [0.053345, -0.13129, 1385431936.0]]
volume_mm3                  = 880969.0
aabb_min                    = [-59.026402, -59.026402, -20.0089]
total_edge_length           = 245962.03125
volume_cm3                  = 880.969
area_cm2                    = nan
axis_momenta                = [1316550656.0, 1316550656.0, 1385431936.0]
vert_barycenter             = [0.0, 0.0, 44.077389]
aabb_diag                   = 204.431488
total_edge_length_incl_faux = 245962.03125
area_mm2                    = nan
aabb_size                   = [118.052803, 118.052803, 117.980103]
principal_axes              = [[0.743728, 0.668482, 0.0], [0.668482, -0.743728, -0.0], [0.0, -0.0, 1.0]]
center_of_mass              = [0.0, 0.0, 36.77795]
barycenter                  = [-1e-06, -4e-06, 36.459026]
aabb_max                    = [59.026402, 59.026402, 97.971199]
meshlabserver cmd = meshlabserver -l c:\users\mathur\appdata\local\temp\tmpb3iyii.txt -i "cq_24.stl" -i "openscad_24.stl" -s "c:\users\mathur\appdata\local\temp\tmpkpz3i7.mlx"
***START OF MESHLAB STDOUT & STDERR***
***END OF MESHLAB STDOUT & STDERR***
meshlabserver return code = 0

max_distance     = 6.032356
rms_distance     = 0.849399
number_points    = 2999
mean_distance    = 0.133338
min_distance     = 0.0
meshlabserver cmd = meshlabserver -l c:\users\mathur\appdata\local\temp\tmpgio_6o.txt -i "openscad_24.stl" -s "c:\users\mathur\appdata\local\temp\tmpdepaxm.mlx"
***START OF MESHLAB STDOUT & STDERR***
***END OF MESHLAB STDOUT & STDERR***
meshlabserver return code = 0

inertia_tensor              = [[1720491136.0, -0.129944, -0.104313], [-0.129944, 1720491136.0, 0.423213], [-0.104313, 0.423213, 1528581760.0]]
volume_mm3                  = 884155.1875
aabb_min                    = [-56.3428, -56.3428, 0.0]
total_edge_length           = 242316.078125
volume_cm3                  = 884.1551875
area_cm2                    = nan
axis_momenta                = [1528581760.0, 1720491136.0, 1720491136.0]
vert_barycenter             = [0.0, 0.0, 103.226196]
aabb_diag                   = 203.458969
total_edge_length_incl_faux = 242316.078125
area_mm2                    = nan
aabb_size                   = [112.6856, 112.6856, 126.488998]
principal_axes              = [[0.0, -0.0, 1.0], [-0.017166, -0.999853, -0.0], [0.999853, -0.017166, -0.0]]
center_of_mass              = [-0.0, -0.0, 56.312897]
barycenter                  = [-1e-06, -1e-06, 53.521461]
aabb_max                    = [56.3428, 56.3428, 126.488998]
meshlabserver cmd = meshlabserver -l c:\users\mathur\appdata\local\temp\tmp2zx3ek.txt -i "cq_25.stl" -i "openscad_25.stl" -s "c:\users\mathur\appdata\local\temp\tmpn9dl4b.mlx"
***START OF MESHLAB STDOUT & STDERR***
***END OF MESHLAB STDOUT & STDERR***
meshlabserver return code = 0

max_distance     = 1.066717
rms_distance     = 0.028414
number_points    = 2999
mean_distance    = 0.002578
min_distance     = 0.0
meshlabserver cmd = meshlabserver -l c:\users\mathur\appdata\local\temp\tmpdualxh.txt -i "openscad_25.stl" -s "c:\users\mathur\appdata\local\temp\tmpzwvbhr.mlx"
***START OF MESHLAB STDOUT & STDERR***
***END OF MESHLAB STDOUT & STDERR***
meshlabserver return code = 0

inertia_tensor              = [[2596287744.0, 0.638834, -2.295648], [0.638834, 2596287744.0, -2.776095], [-2.295648, -2.776095, 2952794624.0]]
volume_mm3                  = 1188011.875
aabb_min                    = [-71.600197, -71.600197, -52.5821]
total_edge_length           = 315376.21875
volume_cm3                  = 1188.011875
area_cm2                    = nan
axis_momenta                = [2596287744.0, 2596287744.0, 2952794624.0]
vert_barycenter             = [0.0, 0.0, 13.835402]
aabb_diag                   = 246.168777
total_edge_length_incl_faux = 315376.21875
area_mm2                    = nan
aabb_size                   = [143.200394, 143.200394, 139.951294]
principal_axes              = [[-0.967441, 0.253095, -0.0], [-0.253095, -0.967441, -0.0], [0.0, 0.0, -1.0]]
center_of_mass              = [0.0, 0.0, 12.030457]
barycenter                  = [6e-06, -1e-06, 23.274502]
aabb_max                    = [71.600197, 71.600197, 87.369202]
meshlabserver cmd = meshlabserver -l c:\users\mathur\appdata\local\temp\tmpy_xrob.txt -i "cq_26.stl" -i "openscad_26.stl" -s "c:\users\mathur\appdata\local\temp\tmpseo5tn.mlx"
***START OF MESHLAB STDOUT & STDERR***
***END OF MESHLAB STDOUT & STDERR***
meshlabserver return code = 0

max_distance     = 3.159772
rms_distance     = 0.153049
number_points    = 3000
mean_distance    = 0.015954
min_distance     = 0.0
meshlabserver cmd = meshlabserver -l c:\users\mathur\appdata\local\temp\tmpgxzsem.txt -i "openscad_26.stl" -s "c:\users\mathur\appdata\local\temp\tmpgn44mw.mlx"
***START OF MESHLAB STDOUT & STDERR***
***END OF MESHLAB STDOUT & STDERR***
meshlabserver return code = 0

inertia_tensor              = [[977891392.0, -0.110429, -0.019458], [-0.110429, 977891392.0, -1.147565], [-0.019458, -1.147565, 1068389248.0]]
volume_mm3                  = 681845.6875
aabb_min                    = [-55.005699, -55.005699, -8.66461]
total_edge_length           = 242145.109375
volume_cm3                  = 681.8456875
area_cm2                    = nan
axis_momenta                = [977891456.0, 977891520.0, 1068389248.0]
vert_barycenter             = [0.0, 0.0, 52.629414]
aabb_diag                   = 189.896439
total_edge_length_incl_faux = 242145.109375
area_mm2                    = nan
aabb_size                   = [110.011398, 110.011398, 108.883614]
principal_axes              = [[0.999982, 0.00605, 0.0], [0.00605, -0.999982, -0.0], [-0.0, -0.0, 1.0]]
center_of_mass              = [-0.0, 0.0, 40.801857]
barycenter                  = [3e-06, 2e-06, 40.57576]
aabb_max                    = [55.005699, 55.005699, 100.219002]
meshlabserver cmd = meshlabserver -l c:\users\mathur\appdata\local\temp\tmpvzuppl.txt -i "cq_27.stl" -i "openscad_27.stl" -s "c:\users\mathur\appdata\local\temp\tmpz84dwx.mlx"
***START OF MESHLAB STDOUT & STDERR***
***END OF MESHLAB STDOUT & STDERR***
meshlabserver return code = 0

max_distance     = 0.006332
rms_distance     = 0.002134
number_points    = 3000
mean_distance    = 0.001686
min_distance     = 0.0
meshlabserver cmd = meshlabserver -l c:\users\mathur\appdata\local\temp\tmpeofdfm.txt -i "openscad_27.stl" -s "c:\users\mathur\appdata\local\temp\tmpjun3vv.mlx"
***START OF MESHLAB STDOUT & STDERR***
***END OF MESHLAB STDOUT & STDERR***
meshlabserver return code = 0

inertia_tensor              = [[8074153472.0, 0.761725, 1.917447], [0.761725, 8074153472.0, 25.436234], [1.917447, 25.436234, 8896477184.0]]
volume_mm3                  = 2422280.0
aabb_min                    = [-88.087196, -88.087196, -53.1614]
total_edge_length           = 281614.0625
volume_cm3                  = 2422.28
area_cm2                    = nan
axis_momenta                = [8074153472.0, 8074153472.0, 8896477184.0]
vert_barycenter             = [0.0, 0.0, 28.561237]
aabb_diag                   = 303.331848
total_edge_length_incl_faux = 281614.0625
area_mm2                    = nan
aabb_size                   = [176.174393, 176.174393, 173.018402]
principal_axes              = [[-0.001719, 0.999999, -0.0], [-0.999999, -0.001719, 0.0], [-0.0, -0.0, -1.0]]
center_of_mass              = [-0.0, -0.0, 29.92947]
barycenter                  = [2e-06, 1e-06, 36.806705]
aabb_max                    = [88.087196, 88.087196, 119.857002]
meshlabserver cmd = meshlabserver -l c:\users\mathur\appdata\local\temp\tmpw455mx.txt -i "cq_28.stl" -i "openscad_28.stl" -s "c:\users\mathur\appdata\local\temp\tmpfica4b.mlx"
***START OF MESHLAB STDOUT & STDERR***
***END OF MESHLAB STDOUT & STDERR***
meshlabserver return code = 0

max_distance     = 6.532358
rms_distance     = 0.504966
number_points    = 3000
mean_distance    = 0.060951
min_distance     = 0.0
meshlabserver cmd = meshlabserver -l c:\users\mathur\appdata\local\temp\tmplj2epj.txt -i "openscad_28.stl" -s "c:\users\mathur\appdata\local\temp\tmpgxdflx.mlx"
***START OF MESHLAB STDOUT & STDERR***
***END OF MESHLAB STDOUT & STDERR***
meshlabserver return code = 0

inertia_tensor              = [[1343018240.0, -0.220488, 3.920945], [-0.220488, 1343018240.0, -1.17261], [3.920945, -1.17261, 1531096064.0]]
volume_mm3                  = 814683.75
aabb_min                    = [-62.7883, -62.7883, -50.276199]
total_edge_length           = 271568.53125
volume_cm3                  = 814.68375
area_cm2                    = nan
axis_momenta                = [1343018368.0, 1343018368.0, 1531096064.0]
vert_barycenter             = [0.0, 0.0, 7.204758]
aabb_diag                   = 216.363144
total_edge_length_incl_faux = 271568.53125
area_mm2                    = nan
aabb_size                   = [125.576599, 125.576599, 123.588196]
principal_axes              = [[0.02336, 0.999727, 0.0], [-0.999727, 0.02336, 0.0], [-0.0, 0.0, -1.0]]
center_of_mass              = [-0.0, 0.0, 6.248392]
barycenter                  = [1e-06, -3e-06, 15.761285]
aabb_max                    = [62.7883, 62.7883, 73.311996]
meshlabserver cmd = meshlabserver -l c:\users\mathur\appdata\local\temp\tmpvhlymy.txt -i "cq_29.stl" -i "openscad_29.stl" -s "c:\users\mathur\appdata\local\temp\tmp4zbx1m.mlx"
***START OF MESHLAB STDOUT & STDERR***
***END OF MESHLAB STDOUT & STDERR***
meshlabserver return code = 0

max_distance     = 9.963858
rms_distance     = 5.045014
number_points    = 2987
mean_distance    = 4.175721
min_distance     = 0.0
meshlabserver cmd = meshlabserver -l c:\users\mathur\appdata\local\temp\tmpnsbqqh.txt -i "openscad_29.stl" -s "c:\users\mathur\appdata\local\temp\tmpmildve.mlx"
***START OF MESHLAB STDOUT & STDERR***
***END OF MESHLAB STDOUT & STDERR***
meshlabserver return code = 0

inertia_tensor              = [[2320510720.0, -0.221877, 0.659573], [-0.221877, 2320510720.0, 9.027193], [0.659573, 9.027193, 2552264960.0]]
volume_mm3                  = 1227500.0
aabb_min                    = [-68.948997, -68.948997, -77.953499]
total_edge_length           = 254049.84375
volume_cm3                  = 1227.5
area_cm2                    = nan
axis_momenta                = [2320510976.0, 2320510976.0, 2552264960.0]
vert_barycenter             = [0.0, 0.0, -17.99226]
aabb_diag                   = 235.799438
total_edge_length_incl_faux = 254049.84375
area_mm2                    = nan
aabb_size                   = [137.897995, 137.897995, 132.550598]
principal_axes              = [[0.999897, 0.014322, -0.0], [0.014322, -0.999897, 0.0], [-0.0, -0.0, -1.0]]
center_of_mass              = [-0.0, -0.0, -13.372834]
barycenter                  = [5e-06, -5e-06, -5.824211]
aabb_max                    = [68.948997, 68.948997, 54.597099]
meshlabserver cmd = meshlabserver -l c:\users\mathur\appdata\local\temp\tmphkauwq.txt -i "cq_30.stl" -i "openscad_30.stl" -s "c:\users\mathur\appdata\local\temp\tmpucpzzr.mlx"
***START OF MESHLAB STDOUT & STDERR***
***END OF MESHLAB STDOUT & STDERR***
meshlabserver return code = 0

max_distance     = 9.985668
rms_distance     = 5.38702
number_points    = 2102
mean_distance    = 4.219068
min_distance     = 0.0
meshlabserver cmd = meshlabserver -l c:\users\mathur\appdata\local\temp\tmper6ruh.txt -i "openscad_30.stl" -s "c:\users\mathur\appdata\local\temp\tmpojdefd.mlx"
***START OF MESHLAB STDOUT & STDERR***
***END OF MESHLAB STDOUT & STDERR***
meshlabserver return code = 0

inertia_tensor              = [[13325136896.0, 0.650585, -0.327766], [0.650585, 13325136896.0, -126.383118], [-0.327766, -126.383118, 15008437248.0]]
volume_mm3                  = 3496593.25
aabb_min                    = [-98.474503, -98.474503, -113.251999]
total_edge_length           = 337458.40625
volume_cm3                  = 3496.59325
area_cm2                    = nan
axis_momenta                = [13325135872.0, 13325136896.0, 15008437248.0]
vert_barycenter             = [0.0, 0.0, -30.271414]
aabb_diag                   = 335.491791
total_edge_length_incl_faux = 337458.40625
area_mm2                    = nan
aabb_size                   = [196.949005, 196.949005, 187.02121]
principal_axes              = [[0.001535, -0.999999, -0.0], [-0.999999, -0.001535, -0.0], [0.0, 0.0, -1.0]]
center_of_mass              = [0.0, 1e-06, -22.546789]
barycenter                  = [-4e-06, -2.8e-05, -10.80633]
aabb_max                    = [98.474503, 98.474503, 73.769203]
meshlabserver cmd = meshlabserver -l c:\users\mathur\appdata\local\temp\tmp0wfhuz.txt -i "cq_31.stl" -i "openscad_31.stl" -s "c:\users\mathur\appdata\local\temp\tmpyix1xl.mlx"
***START OF MESHLAB STDOUT & STDERR***
***END OF MESHLAB STDOUT & STDERR***
meshlabserver return code = 0

max_distance     = 0.851916
rms_distance     = 0.036158
number_points    = 3000
mean_distance    = 0.00326
min_distance     = 0.0
meshlabserver cmd = meshlabserver -l c:\users\mathur\appdata\local\temp\tmpvvl2dg.txt -i "openscad_31.stl" -s "c:\users\mathur\appdata\local\temp\tmpdxvsfh.mlx"
***START OF MESHLAB STDOUT & STDERR***
***END OF MESHLAB STDOUT & STDERR***
meshlabserver return code = 0

inertia_tensor              = [[108024016.0, 0.065455, 0.08389], [0.065455, 108024008.0, 1.724391], [0.08389, 1.724391, 128894792.0]]
volume_mm3                  = 180154.984375
aabb_min                    = [-38.615799, -38.615799, -35.1707]
total_edge_length           = 125793.945313
volume_cm3                  = 180.154984375
area_cm2                    = nan
axis_momenta                = [108024008.0, 108024016.0, 128894792.0]
vert_barycenter             = [0.0, 0.0, -4.876712]
aabb_diag                   = 130.144669
total_edge_length_incl_faux = 125793.945313
area_mm2                    = nan
aabb_size                   = [77.231598, 77.231598, 70.7686]
principal_axes              = [[-0.008663, 0.999962, -0.0], [-0.999962, -0.008663, 0.0], [0.0, 0.0, 1.0]]
center_of_mass              = [-0.0, -0.0, -1.942962]
barycenter                  = [-2e-06, 2e-06, 3.662564]
aabb_max                    = [38.615799, 38.615799, 35.5979]
meshlabserver cmd = meshlabserver -l c:\users\mathur\appdata\local\temp\tmpc5wu80.txt -i "cq_32.stl" -i "openscad_32.stl" -s "c:\users\mathur\appdata\local\temp\tmpe1dtva.mlx"
***START OF MESHLAB STDOUT & STDERR***
***END OF MESHLAB STDOUT & STDERR***
meshlabserver return code = 0

max_distance     = 9.318359
rms_distance     = 1.572302
number_points    = 2999
mean_distance    = 0.284127
min_distance     = 0.0
meshlabserver cmd = meshlabserver -l c:\users\mathur\appdata\local\temp\tmpzi8s6m.txt -i "openscad_32.stl" -s "c:\users\mathur\appdata\local\temp\tmp6x4jcg.mlx"
***START OF MESHLAB STDOUT & STDERR***
***END OF MESHLAB STDOUT & STDERR***
meshlabserver return code = 0

inertia_tensor              = [[1455460736.0, 0.128402, 0.290218], [0.128402, 1455460736.0, -0.141484], [0.290218, -0.141484, 1508939904.0]]
volume_mm3                  = 952092.5
aabb_min                    = [-60.489201, -60.489201, -25.0229]
total_edge_length           = 207884.046875
volume_cm3                  = 952.0925
area_cm2                    = nan
axis_momenta                = [1455460736.0, 1455460736.0, 1508939904.0]
vert_barycenter             = [0.0, 0.0, 39.109356]
aabb_diag                   = 209.488144
total_edge_length_incl_faux = 207884.046875
area_mm2                    = nan
aabb_size                   = [120.978401, 120.978401, 120.887299]
principal_axes              = [[-0.081329, 0.996687, 0.0], [-0.996687, -0.081329, 0.0], [0.0, -0.0, 1.0]]
center_of_mass              = [0.0, -0.0, 34.127777]
barycenter                  = [0.0, 0.0, 33.25301]
aabb_max                    = [60.489201, 60.489201, 95.864403]
meshlabserver cmd = meshlabserver -l c:\users\mathur\appdata\local\temp\tmplnph6a.txt -i "cq_33.stl" -i "openscad_33.stl" -s "c:\users\mathur\appdata\local\temp\tmpcxh4jt.mlx"
***START OF MESHLAB STDOUT & STDERR***
***END OF MESHLAB STDOUT & STDERR***
meshlabserver return code = 0

max_distance     = 8.083243
rms_distance     = 4.547746
number_points    = 3000
mean_distance    = 3.721708
min_distance     = 0.0
meshlabserver cmd = meshlabserver -l c:\users\mathur\appdata\local\temp\tmpulk81h.txt -i "openscad_33.stl" -s "c:\users\mathur\appdata\local\temp\tmplc4ung.mlx"
***START OF MESHLAB STDOUT & STDERR***
***END OF MESHLAB STDOUT & STDERR***
meshlabserver return code = 0

inertia_tensor              = [[142390128.0, -0.002037, -0.052628], [-0.002037, 142390128.0, -0.079415], [-0.052628, -0.079415, 149784080.0]]
volume_mm3                  = 234931.40625
aabb_min                    = [-38.975601, -38.975601, -47.059101]
total_edge_length           = 146550.21875
volume_cm3                  = 234.93140625
area_cm2                    = nan
axis_momenta                = [142390128.0, 142390128.0, 149784080.0]
vert_barycenter             = [0.0, 0.0, -10.960967]
aabb_diag                   = 134.266449
total_edge_length_incl_faux = 146550.21875
area_mm2                    = nan
aabb_size                   = [77.951202, 77.951202, 76.646599]
principal_axes              = [[-0.006687, -0.999978, -0.0], [-0.999978, 0.006687, -0.0], [-0.0, -0.0, 1.0]]
center_of_mass              = [0.0, 0.0, -9.329431]
barycenter                  = [-4e-06, -4e-06, -6.06825]
aabb_max                    = [38.975601, 38.975601, 29.5875]
meshlabserver cmd = meshlabserver -l c:\users\mathur\appdata\local\temp\tmplbn1dh.txt -i "cq_34.stl" -i "openscad_34.stl" -s "c:\users\mathur\appdata\local\temp\tmprmibre.mlx"
***START OF MESHLAB STDOUT & STDERR***
***END OF MESHLAB STDOUT & STDERR***
meshlabserver return code = 0

max_distance     = 3.527107
rms_distance     = 0.460768
number_points    = 3000
mean_distance    = 0.082069
min_distance     = 0.0
meshlabserver cmd = meshlabserver -l c:\users\mathur\appdata\local\temp\tmpqvlhqo.txt -i "openscad_34.stl" -s "c:\users\mathur\appdata\local\temp\tmp9lsgjt.mlx"
***START OF MESHLAB STDOUT & STDERR***
***END OF MESHLAB STDOUT & STDERR***
meshlabserver return code = 0

inertia_tensor              = [[63572776.0, 0.183502, -0.233348], [0.183502, 63572776.0, -0.005306], [-0.233348, -0.005306, 23973314.0]]
volume_mm3                  = 72966.046875
aabb_min                    = [-22.492399, -22.492399, 0.0]
total_edge_length           = 123077.671875
volume_cm3                  = 72.966046875
area_cm2                    = nan
axis_momenta                = [23973314.0, 63572784.0, 63572792.0]
vert_barycenter             = [0.0, 0.0, 88.313126]
aabb_diag                   = 117.144264
total_edge_length_incl_faux = 123077.671875
area_mm2                    = nan
aabb_size                   = [44.984798, 44.984798, 98.364197]
principal_axes              = [[-0.0, -0.0, -1.0], [0.029212, -0.999573, -0.0], [-0.999573, -0.029212, 0.0]]
center_of_mass              = [-0.0, 0.0, 57.308083]
barycenter                  = [1e-06, 1e-06, 44.182568]
aabb_max                    = [22.492399, 22.492399, 98.364197]
meshlabserver cmd = meshlabserver -l c:\users\mathur\appdata\local\temp\tmpja_kc1.txt -i "cq_35.stl" -i "openscad_35.stl" -s "c:\users\mathur\appdata\local\temp\tmpsilo35.mlx"
***START OF MESHLAB STDOUT & STDERR***
***END OF MESHLAB STDOUT & STDERR***
meshlabserver return code = 0

max_distance     = 9.997425
rms_distance     = 5.622244
number_points    = 2004
mean_distance    = 4.570343
min_distance     = 0.0
meshlabserver cmd = meshlabserver -l c:\users\mathur\appdata\local\temp\tmpm1insb.txt -i "openscad_35.stl" -s "c:\users\mathur\appdata\local\temp\tmpcojik1.mlx"
***START OF MESHLAB STDOUT & STDERR***
***END OF MESHLAB STDOUT & STDERR***
meshlabserver return code = 0

inertia_tensor              = [[471938112.0, -0.044729, -0.026764], [-0.044729, 471938112.0, -0.070649], [-0.026764, -0.070649, 473062176.0]]
volume_mm3                  = 490492.65625
aabb_min                    = [-48.9967, -48.9967, -63.326401]
total_edge_length           = 186626.09375
volume_cm3                  = 490.49265625
area_cm2                    = nan
axis_momenta                = [471938048.0, 471938048.0, 473062176.0]
vert_barycenter             = [0.0, 0.0, -14.095701]
aabb_diag                   = 169.719391
total_edge_length_incl_faux = 186626.09375
area_mm2                    = nan
aabb_size                   = [97.993401, 97.993401, 97.9758]
principal_axes              = [[0.958804, 0.284069, 0.0], [0.284069, -0.958804, -0.0], [-0.0, -0.0, 1.0]]
center_of_mass              = [0.0, 0.0, -14.42936]
barycenter                  = [-1e-06, -8e-06, -13.490908]
aabb_max                    = [48.9967, 48.9967, 34.649399]
meshlabserver cmd = meshlabserver -l c:\users\mathur\appdata\local\temp\tmpxbnsn8.txt -i "cq_36.stl" -i "openscad_36.stl" -s "c:\users\mathur\appdata\local\temp\tmp7rfyeo.mlx"
***START OF MESHLAB STDOUT & STDERR***
***END OF MESHLAB STDOUT & STDERR***
meshlabserver return code = 0

max_distance     = 9.541218
rms_distance     = 1.114469
number_points    = 2934
mean_distance    = 0.196309
min_distance     = 0.0
meshlabserver cmd = meshlabserver -l c:\users\mathur\appdata\local\temp\tmpgrhsdx.txt -i "openscad_36.stl" -s "c:\users\mathur\appdata\local\temp\tmp8xwben.mlx"
***START OF MESHLAB STDOUT & STDERR***
***END OF MESHLAB STDOUT & STDERR***
meshlabserver return code = 0

inertia_tensor              = [[2372808448.0, 1.114079, -4.231228], [1.114079, 2372807936.0, -1.269323], [-4.231228, -1.269323, 2625596928.0]]
volume_mm3                  = 924982.0625
aabb_min                    = [-67.5979, -67.5979, -6.67862]
total_edge_length           = 280697.1875
volume_cm3                  = 924.9820625
area_cm2                    = nan
axis_momenta                = [2372808448.0, 2372808704.0, 2625596928.0]
vert_barycenter             = [0.0, 0.0, 73.157005]
aabb_diag                   = 233.30481
total_edge_length_incl_faux = 280697.1875
area_mm2                    = nan
aabb_size                   = [135.195801, 135.195801, 133.698624]
principal_axes              = [[0.002954, -0.999996, -0.0], [-0.999996, -0.002954, -0.0], [-0.0, -0.0, 1.0]]
center_of_mass              = [-0.0, 0.0, 57.136894]
barycenter                  = [-1e-06, -1e-06, 52.530151]
aabb_max                    = [67.5979, 67.5979, 127.019997]
meshlabserver cmd = meshlabserver -l c:\users\mathur\appdata\local\temp\tmphkswvn.txt -i "cq_37.stl" -i "openscad_37.stl" -s "c:\users\mathur\appdata\local\temp\tmpk92oiy.mlx"
***START OF MESHLAB STDOUT & STDERR***
***END OF MESHLAB STDOUT & STDERR***
meshlabserver return code = 0

max_distance     = 1.27553
rms_distance     = 0.144989
number_points    = 3000
mean_distance    = 0.023602
min_distance     = 0.0
meshlabserver cmd = meshlabserver -l c:\users\mathur\appdata\local\temp\tmp1uu9yl.txt -i "openscad_37.stl" -s "c:\users\mathur\appdata\local\temp\tmpk0t_jy.mlx"
***START OF MESHLAB STDOUT & STDERR***
***END OF MESHLAB STDOUT & STDERR***
meshlabserver return code = 0

inertia_tensor              = [[1140819968.0, 0.040745, -9.964995], [0.040745, 1140819968.0, 0.723263], [-9.964995, 0.723263, 1219871360.0]]
volume_mm3                  = 676185.625
aabb_min                    = [-55.129101, -55.129101, 0.0]
total_edge_length           = 135284.015625
volume_cm3                  = 676.185625
area_cm2                    = nan
axis_momenta                = [1140820096.0, 1140820224.0, 1219871360.0]
vert_barycenter             = [0.0, 0.0, 86.42128]
aabb_diag                   = 190.929977
total_edge_length_incl_faux = 135284.015625
area_mm2                    = nan
aabb_size                   = [110.258202, 110.258202, 110.183998]
principal_axes              = [[1.0, -0.000354, 0.0], [0.000354, 1.0, -0.0], [-0.0, 0.0, 1.0]]
center_of_mass              = [-0.0, -0.0, 47.300175]
barycenter                  = [1e-06, 1e-06, 48.546017]
aabb_max                    = [55.129101, 55.129101, 110.183998]
meshlabserver cmd = meshlabserver -l c:\users\mathur\appdata\local\temp\tmpbskecn.txt -i "cq_38.stl" -i "openscad_38.stl" -s "c:\users\mathur\appdata\local\temp\tmpwc16os.mlx"
***START OF MESHLAB STDOUT & STDERR***
***END OF MESHLAB STDOUT & STDERR***
meshlabserver return code = 0

max_distance     = 4.692245
rms_distance     = 0.526113
number_points    = 2999
mean_distance    = 0.098196
min_distance     = 0.0
meshlabserver cmd = meshlabserver -l c:\users\mathur\appdata\local\temp\tmpyjduks.txt -i "openscad_38.stl" -s "c:\users\mathur\appdata\local\temp\tmpc0brtp.mlx"
***START OF MESHLAB STDOUT & STDERR***
***END OF MESHLAB STDOUT & STDERR***
meshlabserver return code = 0

inertia_tensor              = [[1704524928.0, -0.005056, -1.080118], [-0.005056, 1704524928.0, -0.157797], [-1.080118, -0.157797, 1774719104.0]]
volume_mm3                  = 954355.625
aabb_min                    = [-60.485298, -60.485298, -7.03119]
total_edge_length           = 299127.375
volume_cm3                  = 954.355625
area_cm2                    = nan
axis_momenta                = [1704524928.0, 1704524928.0, 1774719104.0]
vert_barycenter             = [0.0, 0.0, 66.560898]
aabb_diag                   = 209.436951
total_edge_length_incl_faux = 299127.375
area_mm2                    = nan
aabb_size                   = [120.970596, 120.970596, 120.814186]
principal_axes              = [[0.999271, 0.038174, 0.0], [-0.038174, 0.999271, 0.0], [0.0, 0.0, -1.0]]
center_of_mass              = [-0.0, -0.0, 47.678913]
barycenter                  = [-0.0, 2e-06, 45.276802]
aabb_max                    = [60.485298, 60.485298, 113.782997]
meshlabserver cmd = meshlabserver -l c:\users\mathur\appdata\local\temp\tmp_bv8rq.txt -i "cq_39.stl" -i "openscad_39.stl" -s "c:\users\mathur\appdata\local\temp\tmpl5ut14.mlx"
***START OF MESHLAB STDOUT & STDERR***
***END OF MESHLAB STDOUT & STDERR***
meshlabserver return code = 0

max_distance     = 3.124502
rms_distance     = 0.299383
number_points    = 2999
mean_distance    = 0.039295
min_distance     = 0.0
meshlabserver cmd = meshlabserver -l c:\users\mathur\appdata\local\temp\tmpxti5qw.txt -i "openscad_39.stl" -s "c:\users\mathur\appdata\local\temp\tmpbbdljs.mlx"
***START OF MESHLAB STDOUT & STDERR***
***END OF MESHLAB STDOUT & STDERR***
meshlabserver return code = 0

inertia_tensor              = [[215163200.0, -0.222415, -2.296807], [-0.222415, 215163200.0, 0.342481], [-2.296807, 0.342481, 270209120.0]]
volume_mm3                  = 231933.765625
aabb_min                    = [-44.547901, -44.547901, -17.9149]
total_edge_length           = 157943.515625
volume_cm3                  = 231.933765625
area_cm2                    = nan
axis_momenta                = [215163200.0, 215163216.0, 270209120.0]
vert_barycenter             = [0.0, 0.0, 17.179689]
aabb_diag                   = 149.565933
total_edge_length_incl_faux = 157943.515625
area_mm2                    = nan
aabb_size                   = [89.095802, 89.095802, 80.584396]
principal_axes              = [[-0.021903, -0.99976, 0.0], [-0.99976, 0.021903, -0.0], [0.0, -0.0, -1.0]]
center_of_mass              = [-0.0, -0.0, 20.348845]
barycenter                  = [1e-06, 1e-06, 21.852755]
aabb_max                    = [44.547901, 44.547901, 62.669498]
meshlabserver cmd = meshlabserver -l c:\users\mathur\appdata\local\temp\tmpdbr0ti.txt -i "cq_40.stl" -i "openscad_40.stl" -s "c:\users\mathur\appdata\local\temp\tmp0ccwqa.mlx"
***START OF MESHLAB STDOUT & STDERR***
***END OF MESHLAB STDOUT & STDERR***
meshlabserver return code = 0

max_distance     = 2.809167
rms_distance     = 0.232053
number_points    = 3000
mean_distance    = 0.029771
min_distance     = 0.0
meshlabserver cmd = meshlabserver -l c:\users\mathur\appdata\local\temp\tmpeutyn1.txt -i "openscad_40.stl" -s "c:\users\mathur\appdata\local\temp\tmpca5cdk.mlx"
***START OF MESHLAB STDOUT & STDERR***
***END OF MESHLAB STDOUT & STDERR***
meshlabserver return code = 0

inertia_tensor              = [[95961520.0, 8.177283, -4.19113], [8.177283, 95961024.0, 8.672797], [-4.19113, 8.672797, 132311944.0]]
volume_mm3                  = 96963.609375
aabb_min                    = [-46.761002, -46.761002, -16.863001]
total_edge_length           = 137584.90625
volume_cm3                  = 96.963609375
area_cm2                    = nan
axis_momenta                = [95961024.0, 95961528.0, 132311944.0]
vert_barycenter             = [0.0, 0.0, 8.304808]
aabb_diag                   = 150.181595
total_edge_length_incl_faux = 137584.90625
area_mm2                    = nan
aabb_size                   = [93.522003, 93.522003, 71.146202]
principal_axes              = [[0.016422, -0.999865, 0.0], [-0.999865, -0.016422, -0.0], [0.0, -0.0, -1.0]]
center_of_mass              = [-0.0, -3e-06, 11.814399]
barycenter                  = [-1e-06, 0.0, 17.417894]
aabb_max                    = [46.761002, 46.761002, 54.283199]
meshlabserver cmd = meshlabserver -l c:\users\mathur\appdata\local\temp\tmpf0lfbp.txt -i "cq_41.stl" -i "openscad_41.stl" -s "c:\users\mathur\appdata\local\temp\tmp025_4u.mlx"
***START OF MESHLAB STDOUT & STDERR***
***END OF MESHLAB STDOUT & STDERR***
meshlabserver return code = 0

max_distance     = 0.85333
rms_distance     = 0.054833
number_points    = 3000
mean_distance    = 0.006391
min_distance     = 0.0
meshlabserver cmd = meshlabserver -l c:\users\mathur\appdata\local\temp\tmprlnsuw.txt -i "openscad_41.stl" -s "c:\users\mathur\appdata\local\temp\tmp4dkczq.mlx"
***START OF MESHLAB STDOUT & STDERR***
***END OF MESHLAB STDOUT & STDERR***
meshlabserver return code = 0

inertia_tensor              = [[608446.6875, 0.000189, 0.001782], [0.000189, 608446.6875, -0.000369], [0.001782, -0.000369, 689719.125]]
volume_mm3                  = 8021.199707
aabb_min                    = [-13.2994, -13.2994, -7.89849]
total_edge_length           = 49958.871094
volume_cm3                  = 8.021199707
area_cm2                    = nan
axis_momenta                = [608446.625, 608446.6875, 689719.125]
vert_barycenter             = [0.0, 0.0, 3.4593]
aabb_diag                   = 45.352444
total_edge_length_incl_faux = 49958.871094
area_mm2                    = nan
aabb_size                   = [26.598801, 26.598801, 25.334789]
principal_axes              = [[-0.009288, 0.999957, 0.0], [-0.999957, -0.009288, 0.0], [-0.0, 0.0, -1.0]]
center_of_mass              = [0.0, 0.0, 4.419351]
barycenter                  = [0.0, 0.0, 5.276814]
aabb_max                    = [13.2994, 13.2994, 17.4363]
meshlabserver cmd = meshlabserver -l c:\users\mathur\appdata\local\temp\tmpaobhnp.txt -i "cq_42.stl" -i "openscad_42.stl" -s "c:\users\mathur\appdata\local\temp\tmpobwdw7.mlx"
***START OF MESHLAB STDOUT & STDERR***
***END OF MESHLAB STDOUT & STDERR***
meshlabserver return code = 0

max_distance     = 9.568626
rms_distance     = 0.391784
number_points    = 2899
mean_distance    = 0.036017
min_distance     = 0.0
meshlabserver cmd = meshlabserver -l c:\users\mathur\appdata\local\temp\tmpx4gqqf.txt -i "openscad_42.stl" -s "c:\users\mathur\appdata\local\temp\tmpwwg3ak.mlx"
***START OF MESHLAB STDOUT & STDERR***
***END OF MESHLAB STDOUT & STDERR***
meshlabserver return code = 0

inertia_tensor              = [[6564214272.0, 1.376919, 1.007221], [1.376919, 6564214272.0, 0.161464], [1.007221, 0.161464, 6843568128.0]]
volume_mm3                  = 2259544.25
aabb_min                    = [-82.494904, -82.494904, -38.990898]
total_edge_length           = 359220.40625
volume_cm3                  = 2259.54425
area_cm2                    = nan
axis_momenta                = [6564213760.0, 6564213760.0, 6843568128.0]
vert_barycenter             = [0.0, 0.0, 47.345612]
aabb_diag                   = 285.69632
total_edge_length_incl_faux = 359220.40625
area_mm2                    = nan
aabb_size                   = [164.989807, 164.989807, 164.860901]
principal_axes              = [[0.009992, -0.99995, 0.0], [-0.99995, -0.009992, 0.0], [-0.0, -0.0, -1.0]]
center_of_mass              = [0.0, -0.0, 43.410542]
barycenter                  = [-0.0, 0.0, 38.20528]
aabb_max                    = [82.494904, 82.494904, 125.870003]
meshlabserver cmd = meshlabserver -l c:\users\mathur\appdata\local\temp\tmpoanirg.txt -i "cq_43.stl" -i "openscad_43.stl" -s "c:\users\mathur\appdata\local\temp\tmpovghor.mlx"
***START OF MESHLAB STDOUT & STDERR***
***END OF MESHLAB STDOUT & STDERR***
meshlabserver return code = 0

max_distance     = 4.516621
rms_distance     = 0.381432
number_points    = 3000
mean_distance    = 0.056968
min_distance     = 0.0
meshlabserver cmd = meshlabserver -l c:\users\mathur\appdata\local\temp\tmpt43qxz.txt -i "openscad_43.stl" -s "c:\users\mathur\appdata\local\temp\tmp53mw2j.mlx"
***START OF MESHLAB STDOUT & STDERR***
***END OF MESHLAB STDOUT & STDERR***
meshlabserver return code = 0

inertia_tensor              = [[1353566720.0, 0.176838, -0.174095], [0.176838, 1353566720.0, 0.664329], [-0.174095, 0.664329, 1421151744.0]]
volume_mm3                  = 859999.125
aabb_min                    = [-61.2477, -61.2477, -50.714901]
total_edge_length           = 254792.5625
volume_cm3                  = 859.999125
area_cm2                    = nan
axis_momenta                = [1353566848.0, 1353566848.0, 1421151744.0]
vert_barycenter             = [0.0, 0.0, 7.896228]
aabb_diag                   = 211.657959
total_edge_length_incl_faux = 254792.5625
area_mm2                    = nan
aabb_size                   = [122.495399, 122.495399, 121.609406]
principal_axes              = [[0.194486, -0.980905, 0.0], [-0.980905, -0.194486, -0.0], [0.0, -0.0, -1.0]]
center_of_mass              = [-0.0, -0.0, 8.127862]
barycenter                  = [-2e-06, 7e-06, 14.262572]
aabb_max                    = [61.2477, 61.2477, 70.894501]
meshlabserver cmd = meshlabserver -l c:\users\mathur\appdata\local\temp\tmphtdkxs.txt -i "cq_44.stl" -i "openscad_44.stl" -s "c:\users\mathur\appdata\local\temp\tmpmhl9id.mlx"
***START OF MESHLAB STDOUT & STDERR***
***END OF MESHLAB STDOUT & STDERR***
meshlabserver return code = 0

max_distance     = 7.030205
rms_distance     = 1.06856
number_points    = 2999
mean_distance    = 0.17312
min_distance     = 0.0
meshlabserver cmd = meshlabserver -l c:\users\mathur\appdata\local\temp\tmpkspxlj.txt -i "openscad_44.stl" -s "c:\users\mathur\appdata\local\temp\tmpwlmqg6.mlx"
***START OF MESHLAB STDOUT & STDERR***
***END OF MESHLAB STDOUT & STDERR***
meshlabserver return code = 0

inertia_tensor              = [[832522112.0, -0.026391, 0.082703], [-0.026391, 832522112.0, 0.071361], [0.082703, 0.071361, 851208448.0]]
volume_mm3                  = 629027.125
aabb_min                    = [-55.129601, -55.129601, -37.369202]
total_edge_length           = 188488.5
volume_cm3                  = 629.027125
area_cm2                    = nan
axis_momenta                = [832522112.0, 832522112.0, 851208448.0]
vert_barycenter             = [0.0, 0.0, 18.783567]
aabb_diag                   = 190.944244
total_edge_length_incl_faux = 188488.5
area_mm2                    = nan
aabb_size                   = [110.259201, 110.259201, 110.206703]
principal_axes              = [[0.023645, 0.99972, -0.0], [-0.99972, 0.023645, 0.0], [-0.0, -0.0, -1.0]]
center_of_mass              = [0.0, -0.0, 16.814821]
barycenter                  = [7e-06, -0.0, 18.705421]
aabb_max                    = [55.129601, 55.129601, 72.837502]
meshlabserver cmd = meshlabserver -l c:\users\mathur\appdata\local\temp\tmpix5tf5.txt -i "cq_45.stl" -i "openscad_45.stl" -s "c:\users\mathur\appdata\local\temp\tmpwbqmds.mlx"
***START OF MESHLAB STDOUT & STDERR***
***END OF MESHLAB STDOUT & STDERR***
meshlabserver return code = 0

max_distance     = 9.963762
rms_distance     = 1.989931
number_points    = 2999
mean_distance    = 0.466715
min_distance     = 0.0
meshlabserver cmd = meshlabserver -l c:\users\mathur\appdata\local\temp\tmpp2icyl.txt -i "openscad_45.stl" -s "c:\users\mathur\appdata\local\temp\tmpev7ixd.mlx"
***START OF MESHLAB STDOUT & STDERR***
***END OF MESHLAB STDOUT & STDERR***
meshlabserver return code = 0

inertia_tensor              = [[7051791360.0, -0.55241, -1.557439], [-0.55241, 7051791360.0, -0.895824], [-1.557439, -0.895824, 7194962432.0]]
volume_mm3                  = 2280536.5
aabb_min                    = [-84.573997, -84.573997, -60.777401]
total_edge_length           = 297585.46875
volume_cm3                  = 2280.5365
area_cm2                    = nan
axis_momenta                = [7051791360.0, 7051791360.0, 7194962432.0]
vert_barycenter             = [0.0, 0.0, 22.276447]
aabb_diag                   = 292.579376
total_edge_length_incl_faux = 297585.46875
area_mm2                    = nan
aabb_size                   = [169.147995, 169.147995, 168.465408]
principal_axes              = [[0.999991, 0.004311, 0.0], [-0.004311, 0.999991, 0.0], [-0.0, -0.0, 1.0]]
center_of_mass              = [-0.0, -0.0, 22.375034]
barycenter                  = [2e-06, -3e-06, 25.696543]
aabb_max                    = [84.573997, 84.573997, 107.688004]
meshlabserver cmd = meshlabserver -l c:\users\mathur\appdata\local\temp\tmpqkz55f.txt -i "cq_46.stl" -i "openscad_46.stl" -s "c:\users\mathur\appdata\local\temp\tmpau1etz.mlx"
***START OF MESHLAB STDOUT & STDERR***
***END OF MESHLAB STDOUT & STDERR***
meshlabserver return code = 0

max_distance     = 8.671898
rms_distance     = 1.4299
number_points    = 3000
mean_distance    = 0.370586
min_distance     = 0.0
meshlabserver cmd = meshlabserver -l c:\users\mathur\appdata\local\temp\tmpauoyml.txt -i "openscad_46.stl" -s "c:\users\mathur\appdata\local\temp\tmpbvz8hh.mlx"
***START OF MESHLAB STDOUT & STDERR***
***END OF MESHLAB STDOUT & STDERR***
meshlabserver return code = 0

inertia_tensor              = [[967080064.0, 0.06829, 2.565061], [0.06829, 967079808.0, 1.521528], [2.565061, 1.521528, 807461632.0]]
volume_mm3                  = 534963.75
aabb_min                    = [-48.4319, -48.4319, 0.0]
total_edge_length           = 152710.84375
volume_cm3                  = 534.96375
area_cm2                    = nan
axis_momenta                = [807461632.0, 967079552.0, 967079808.0]
vert_barycenter             = [0.0, 0.0, 102.742996]
aabb_diag                   = 184.825714
total_edge_length_incl_faux = 152710.84375
area_mm2                    = nan
aabb_size                   = [96.8638, 96.8638, 124.078003]
principal_axes              = [[0.0, 0.0, -1.0], [0.000284, -1.0, -0.0], [1.0, 0.000284, 0.0]]
center_of_mass              = [-0.0, -0.0, 55.373116]
barycenter                  = [0.0, -0.0, 56.691471]
aabb_max                    = [48.4319, 48.4319, 124.078003]
meshlabserver cmd = meshlabserver -l c:\users\mathur\appdata\local\temp\tmp42hxde.txt -i "cq_47.stl" -i "openscad_47.stl" -s "c:\users\mathur\appdata\local\temp\tmp9kgahv.mlx"
***START OF MESHLAB STDOUT & STDERR***
***END OF MESHLAB STDOUT & STDERR***
meshlabserver return code = 0

max_distance     = 5.68978
rms_distance     = 0.422529
number_points    = 2999
mean_distance    = 0.049083
min_distance     = 0.0
meshlabserver cmd = meshlabserver -l c:\users\mathur\appdata\local\temp\tmpejyvn7.txt -i "openscad_47.stl" -s "c:\users\mathur\appdata\local\temp\tmph3z48g.mlx"
***START OF MESHLAB STDOUT & STDERR***
***END OF MESHLAB STDOUT & STDERR***
meshlabserver return code = 0

inertia_tensor              = [[3291734528.0, -6.717536, 0.801451], [-6.717536, 3291734528.0, 0.558442], [0.801451, 0.558442, 4056215552.0]]
volume_mm3                  = 1416379.75
aabb_min                    = [-77.456596, -77.456596, -76.288498]
total_edge_length           = 256488.296875
volume_cm3                  = 1416.37975
area_cm2                    = nan
axis_momenta                = [3291734784.0, 3291734784.0, 4056215552.0]
vert_barycenter             = [0.0, 0.0, -17.044891]
aabb_diag                   = 259.590088
total_edge_length_incl_faux = 256488.296875
area_mm2                    = nan
aabb_size                   = [154.913193, 154.913193, 139.2509]
principal_axes              = [[0.990238, 0.139389, -0.0], [0.139389, -0.990238, 0.0], [0.0, 0.0, 1.0]]
center_of_mass              = [0.0, 0.0, -11.596229]
barycenter                  = [-3e-06, 3e-06, 1.000776]
aabb_max                    = [77.456596, 77.456596, 62.962399]
meshlabserver cmd = meshlabserver -l c:\users\mathur\appdata\local\temp\tmpqyrmrf.txt -i "cq_48.stl" -i "openscad_48.stl" -s "c:\users\mathur\appdata\local\temp\tmpyfealh.mlx"
***START OF MESHLAB STDOUT & STDERR***
***END OF MESHLAB STDOUT & STDERR***
meshlabserver return code = 0

max_distance     = 5.438656
rms_distance     = 0.26167
number_points    = 2999
mean_distance    = 0.030164
min_distance     = 0.0
meshlabserver cmd = meshlabserver -l c:\users\mathur\appdata\local\temp\tmp6jmgul.txt -i "openscad_48.stl" -s "c:\users\mathur\appdata\local\temp\tmpdb_bgw.mlx"
***START OF MESHLAB STDOUT & STDERR***
***END OF MESHLAB STDOUT & STDERR***
meshlabserver return code = 0

inertia_tensor              = [[839486144.0, -3.972914, -2.811353], [-3.972914, 839486272.0, -0.164788], [-2.811353, -0.164788, 1046536960.0]]
volume_mm3                  = 415705.15625
aabb_min                    = [-58.780998, -58.780998, -4.93513]
total_edge_length           = 185510.421875
volume_cm3                  = 415.70515625
area_cm2                    = nan
axis_momenta                = [839486080.0, 839486208.0, 1046536960.0]
vert_barycenter             = [0.0, 0.0, 57.930614]
aabb_diag                   = 200.28392
total_edge_length_incl_faux = 185510.421875
area_mm2                    = nan
aabb_size                   = [117.561996, 117.561996, 111.678123]
principal_axes              = [[0.999557, 0.029774, 0.0], [0.029774, -0.999557, -0.0], [-0.0, -0.0, 1.0]]
center_of_mass              = [-0.0, 0.0, 44.858143]
barycenter                  = [-1e-06, 4e-06, 46.675423]
aabb_max                    = [58.780998, 58.780998, 106.742996]
meshlabserver cmd = meshlabserver -l c:\users\mathur\appdata\local\temp\tmpkvtp_8.txt -i "cq_49.stl" -i "openscad_49.stl" -s "c:\users\mathur\appdata\local\temp\tmprkiwar.mlx"
***START OF MESHLAB STDOUT & STDERR***
***END OF MESHLAB STDOUT & STDERR***
meshlabserver return code = 0

max_distance     = 0.685387
rms_distance     = 0.425164
number_points    = 2999
mean_distance    = 0.364579
min_distance     = 0.0
meshlabserver cmd = meshlabserver -l c:\users\mathur\appdata\local\temp\tmpssstpd.txt -i "openscad_49.stl" -s "c:\users\mathur\appdata\local\temp\tmpqx87sa.mlx"
***START OF MESHLAB STDOUT & STDERR***
***END OF MESHLAB STDOUT & STDERR***
meshlabserver return code = 0

inertia_tensor              = [[1311982720.0, -0.224039, 0.149016], [-0.224039, 1311982720.0, -0.091936], [0.149016, -0.091936, 1355415424.0]]
volume_mm3                  = 891429.6875
aabb_min                    = [-60.5089, -60.5089, -61.194]
total_edge_length           = 189824.921875
volume_cm3                  = 891.4296875
area_cm2                    = nan
axis_momenta                = [1311982720.0, 1311982720.0, 1355415424.0]
vert_barycenter             = [0.0, 0.0, -4.707986]
aabb_diag                   = 208.773468
total_edge_length_incl_faux = 189824.921875
area_mm2                    = nan
aabb_size                   = [121.017799, 121.017799, 119.564804]
principal_axes              = [[0.988656, 0.150196, -0.0], [0.150196, -0.988656, -0.0], [0.0, -0.0, 1.0]]
center_of_mass              = [0.0, -0.0, -1.922801]
barycenter                  = [4e-06, 0.0, 1.733035]
aabb_max                    = [60.5089, 60.5089, 58.3708]
