6.361262579018487e-06
8.583719658394138e-06
3.6919585704447412e-06
9.454378456830268e-06
5.567329774565472e-06
5.636216637879769e-06
1.1830512229998364e-05
9.485315371962528e-06
3.6251425596654737e-06
6.7005947673092975e-06
5.929588455579597e-06
8.305878771399123e-06
6.974855042076716e-06
9.99617025765161e-06
3.383216619582555e-06
4.65788656473644e-06
7.707509230639568e-06
6.889297603081726e-06
8.776669820264608e-06
6.306944967223717e-06
8.036953036682799e-06
4.168923110422551e-06
5.574338136919244e-06
4.692703264136031e-06
6.219752076115846e-06
5.467248861315333e-06
6.2409098577093125e-06
5.939772382341315e-06
6.8078660147824385e-06
3.7446282557976016e-06
4.526074489770865e-06
6.125364875508039e-06
4.077221215883678e-06
6.0122131182526294e-06
8.978944468107918e-06
6.089159915141468e-06
8.470038674846208e-06
5.231964594737865e-06
5.380685299433182e-06
5.80372988597165e-06
4.830550873334639e-06
1.285057719527066e-05
9.439380583613197e-06
5.599316634512073e-06
8.35572681714243e-06
9.460527052441904e-06
5.218959364411406e-06
3.0011627173545205e-06
6.045937471890381e-06
1.1291383346271414e-05
