9e-06
0.000172
0.000299
0.000293
0.000158
0.000443
0.00042
0.000175
0.000347
7.1e-05
0.000311
0.000265
3.7e-05
3.3e-05
0.000147
0.000393
0.000338
0.000508
0.000314
0.000344
4.7e-05
0.000313
0.000395
0.000467
0.000328
0.000366
0.000152
0.000341
0.000354
0.000316
0.00032
0.000196
0.000423
0.000381
0.000402
0.0004
0.000432
4.3e-05
0.000338
0.00029
0.000356
0.000288
0.000319
0.000391
0.000378
0.000411
0.000343
0.00036
0.000531
0.000388
