solid OpenSCAD_Model
  facet normal 0 0 -1
    outer loop
      vertex 0 0 1.77254
      vertex 4.33961 25.3643 1.77254
      vertex 4.33961 0 1.77254
    endloop
  endfacet
  facet normal -0 0 -1
    outer loop
      vertex 4.33961 25.3643 1.77254
      vertex 0 0 1.77254
      vertex 0 25.3643 1.77254
    endloop
  endfacet
  facet normal 0 -1 0
    outer loop
      vertex 0 0 1.77254
      vertex 4.33961 0 5
      vertex 0 0 5
    endloop
  endfacet
  facet normal 0 -1 -0
    outer loop
      vertex 4.33961 0 5
      vertex 0 0 1.77254
      vertex 4.33961 0 1.77254
    endloop
  endfacet
  facet normal 0 1 -0
    outer loop
      vertex 4.33961 25.3643 1.77254
      vertex 0 25.3643 5
      vertex 4.33961 25.3643 5
    endloop
  endfacet
  facet normal 0 1 0
    outer loop
      vertex 0 25.3643 5
      vertex 4.33961 25.3643 1.77254
      vertex 0 25.3643 1.77254
    endloop
  endfacet
  facet normal 1 -0 0
    outer loop
      vertex 4.33961 0 5
      vertex 4.33961 25.3643 1.77254
      vertex 4.33961 25.3643 5
    endloop
  endfacet
  facet normal 1 0 0
    outer loop
      vertex 4.33961 25.3643 1.77254
      vertex 4.33961 0 5
      vertex 4.33961 0 1.77254
    endloop
  endfacet
  facet normal -1 0 0
    outer loop
      vertex 0 0 1.77254
      vertex 0 25.3643 5
      vertex 0 25.3643 1.77254
    endloop
  endfacet
  facet normal -1 -0 0
    outer loop
      vertex 0 25.3643 5
      vertex 0 0 1.77254
      vertex 0 0 5
    endloop
  endfacet
  facet normal -0 0 1
    outer loop
      vertex 0 25.3643 5
      vertex 4.33961 0 5
      vertex 4.33961 25.3643 5
    endloop
  endfacet
  facet normal 0 0 1
    outer loop
      vertex 4.33961 0 5
      vertex 0 25.3643 5
      vertex 0 0 5
    endloop
  endfacet
endsolid OpenSCAD_Model
