316.424042
157.236221
437.663452
486.055664
77.109695
193.508179
392.317169
118.772797
13.631444
328.854431
315.066315
318.452271
152.556503
406.796082
82.749878
331.212189
133.248795
359.995239
35.924351
236.932495
140.639771
419.645935
10.776958
339.139496
43.812145
204.385986
222.027695
59.769112
173.058365
442.928345
301.585602
282.550964
366.561951
291.927338
72.026627
185.096024
72.426102
197.862274
125.730019
457.104462
542.895508
447.824493
113.561035
233.711395
80.413849
351.50351
459.517639
289.37558
324.680939
61.639206
